[gd_resource type="DynamicFont" load_steps=3 format=2]

[ext_resource path="res://assets/fonts/Boogaloo-Regular.ttf" type="DynamicFontData" id=1]
[ext_resource path="res://assets/fonts/NotoSans/NotoSans-Bold.ttf" type="DynamicFontData" id=2]

[resource]
size = 24
font_data = ExtResource( 1 )
fallback/0 = ExtResource( 2 )
