[gd_scene load_steps=4 format=2]

[ext_resource path="res://scenes/board_logic/node/arrow/arrow.gd" type="Script" id=1]
[ext_resource path="res://scenes/board_logic/node/arrow/arrow.png" type="Texture" id=2]

[sub_resource type="BoxShape" id=1]
extents = Vector3( 0.724517, 0.1, 1.03621 )

[node name="Arrow" type="Area" groups=[
"arrows",
]]
input_capture_on_drag = true
monitoring = false
monitorable = false
script = ExtResource( 1 )

[node name="Sprite" type="Sprite3D" parent="."]
transform = Transform( 1, 0, 0, 0, -4.37114e-08, 1, 0, -1, -4.37114e-08, 0, 0.2, 0 )
offset = Vector2( 0, -330 )
flip_v = true
modulate = Color( 1, 0.5, 0.5, 0.3 )
pixel_size = 0.005
double_sided = false
texture = ExtResource( 2 )

[node name="Shape" type="CollisionShape" parent="."]
transform = Transform( 1, 0, 0, 0, 1, 0, 0, 0, 1, 0, 0.140164, 1.60022 )
shape = SubResource( 1 )
[connection signal="input_event" from="." to="." method="_on_Arrow_input_event"]
[connection signal="mouse_entered" from="." to="." method="_on_Arrow_mouse_entered"]
