[gd_resource type="SpatialMaterial" load_steps=2 format=2]

[ext_resource path="res://scenes/board_logic/node/material/tile_green_col.png" type="Texture" id=1]

[resource]
params_diffuse_mode = 4
params_specular_mode = 4
albedo_texture = ExtResource( 1 )
